{
  "project_info": {
    "project_number": "37305373126",
    "firebase_url": "https://tvet-222ad.firebaseio.com",
    "project_id": "tvet-222ad",
    "storage_bucket": "tvet-222ad.appspot.com"
  },
  "client": [
    {
      "client_info": {
        "mobilesdk_app_id": "1:37305373126:android:3a8011870d937a39",
        "android_client_info": {
          "package_name": "com.mycompany.my_projectwcc"
        }
      },
      "oauth_client": [
        {
          "client_id": "37305373126-doterhsgag2j2rnc4kr5n1hmqrkustmu.apps.googleusercontent.com",
          "client_type": 1,
          "android_info": {
            "package_name": "com.mycompany.my_projectwcc",
            "certificate_hash": "84f6c805543a43b35c7230f4b3e590ff5a11da3d"
          }
        },
        {
          "client_id": "37305373126-2mb7hv10qu2k3fo8kmtd00h4cts88k2v.apps.googleusercontent.com",
          "client_type": 3
        }
      ],
      "api_key": [
        {
          "current_key": "AIzaSyC3-YQ0-iakzu6PR0IctiJ2dFI4j2eGyaU"
        }
      ],
      "services": {
        "analytics_service": {
          "status": 1
        },
        "appinvite_service": {
          "status": 2,
          "other_platform_oauth_client": [
            {
              "client_id": "37305373126-2mb7hv10qu2k3fo8kmtd00h4cts88k2v.apps.googleusercontent.com",
              "client_type": 3
            }
          ]
        },
        "ads_service": {
          "status": 2
        }
      }
    },
    {
      "client_info": {
        "mobilesdk_app_id": "1:37305373126:android:9cb929f3e12ddf85",
        "android_client_info": {
          "package_name": "com.tccymcpt.mycct"
        }
      },
      "oauth_client": [
        {
          "client_id": "37305373126-chqp9b8ls7mvj0lechu123ohtth31unh.apps.googleusercontent.com",
          "client_type": 1,
          "android_info": {
            "package_name": "com.tccymcpt.mycct",
            "certificate_hash": "2e97c6e7d9f586b8464b84dc7fb70a25edf69093"
          }
        },
        {
          "client_id": "37305373126-2mb7hv10qu2k3fo8kmtd00h4cts88k2v.apps.googleusercontent.com",
          "client_type": 3
        }
      ],
      "api_key": [
        {
          "current_key": "AIzaSyC3-YQ0-iakzu6PR0IctiJ2dFI4j2eGyaU"
        }
      ],
      "services": {
        "analytics_service": {
          "status": 1
        },
        "appinvite_service": {
          "status": 2,
          "other_platform_oauth_client": [
            {
              "client_id": "37305373126-2mb7hv10qu2k3fo8kmtd00h4cts88k2v.apps.googleusercontent.com",
              "client_type": 3
            }
          ]
        },
        "ads_service": {
          "status": 2
        }
      }
    },
    {
      "client_info": {
        "mobilesdk_app_id": "1:37305373126:android:a096af6c2fab457a",
        "android_client_info": {
          "package_name": "com.tceconnmy.tvettcenenco"
        }
      },
      "oauth_client": [
        {
          "client_id": "37305373126-vuvhmjml2okiv1lo769k5qgrtsr6heft.apps.googleusercontent.com",
          "client_type": 1,
          "android_info": {
            "package_name": "com.tceconnmy.tvettcenenco",
            "certificate_hash": "ac19720ecc71e7213e2758023e3e706dcf27c5f7"
          }
        },
        {
          "client_id": "37305373126-2mb7hv10qu2k3fo8kmtd00h4cts88k2v.apps.googleusercontent.com",
          "client_type": 3
        }
      ],
      "api_key": [
        {
          "current_key": "AIzaSyC3-YQ0-iakzu6PR0IctiJ2dFI4j2eGyaU"
        }
      ],
      "services": {
        "analytics_service": {
          "status": 1
        },
        "appinvite_service": {
          "status": 2,
          "other_platform_oauth_client": [
            {
              "client_id": "37305373126-2mb7hv10qu2k3fo8kmtd00h4cts88k2v.apps.googleusercontent.com",
              "client_type": 3
            }
          ]
        },
        "ads_service": {
          "status": 2
        }
      }
    }
  ],
  "configuration_version": "1"
}